Basic Data Wrangling & Exploration, ft. Tidyverse
…
asthma_ds0 <- read_sav("asthma_ds.sav")

the spss sav file is unaffected, because we import the dataset into R object.

the dataset now reside in R memory

Import Dataset

We can view the dataset by writing the object name

asthma_ds0

# A tibble: 150 × 16
      id idR   Gender       Age WorkStatus   Height Weight_Pre PA_HW Weight_Post
   <dbl> <chr> <dbl+lbl>  <dbl> <dbl+lbl>     <dbl>      <dbl> <dbl>       <dbl>
 1     1 nXSw  2 [Female]    34 2 [Unemploy…    179       84.2     5        76.7
 2     2 yg2t  1 [Male]      31 2 [Unemploy…    169       81.8     1        75.7
 3     3 QBW4  1 [Male]      25 1 [Employed]    164       88.5     1        84.1
 4     4 2x2S  2 [Female]    33 2 [Unemploy…    136       53.2     4        46.9
 5     5 mOnn  1 [Male]      28 2 [Unemploy…    172       71.3     2        63.3
 6     6 D3sl  1 [Male]      33 2 [Unemploy…    178       87.3     0        82.6
 7     7 le6j  2 [Female]    31 2 [Unemploy…    140       48.8     5        41.9
 8     8 r3gC  2 [Female]    34 1 [Employed]    140       49.1     2        43.6
 9     9 3Tyt  1 [Male]      31 1 [Employed]    171       60.1     1        54.7
10    10 cmKF  1 [Male]      28 1 [Employed]    163       93.1     1        86.2
# ℹ 140 more rows
# ℹ 7 more variables: Tx2 <dbl+lbl>, PEFR_Pre <dbl>, PEFR_Post <dbl>,
#   SxWheeze_Pre <dbl+lbl>, SxWheeze_Post <dbl+lbl>, PS_Pre <dbl>,
#   PS_Post <dbl>
…
In this dataset, we can notice that the Gender variable is coded as 1 and 2, with label Male and Female respectively.

Similar to other factor (categorical) variables in this dataset.

This is common in SPSS dataset, where the label is stored separately from the data.

We can use as_factor function to convert the variable to factor, and apply the label to the factor.

asthma_ds <- as_factor(asthma_ds0)

Import Dataset

asthma_ds

# A tibble: 150 × 16
      id idR   Gender   Age WorkStatus Height Weight_Pre PA_HW Weight_Post Tx2  
   <dbl> <chr> <fct>  <dbl> <fct>       <dbl>      <dbl> <dbl>       <dbl> <fct>
 1     1 nXSw  Female    34 Unemployed    179       84.2     5        76.7 Drug…
 2     2 yg2t  Male      31 Unemployed    169       81.8     1        75.7 Plac…
 3     3 QBW4  Male      25 Employed      164       88.5     1        84.1 Drug…
 4     4 2x2S  Female    33 Unemployed    136       53.2     4        46.9 Drug…
 5     5 mOnn  Male      28 Unemployed    172       71.3     2        63.3 Plac…
 6     6 D3sl  Male      33 Unemployed    178       87.3     0        82.6 Drug…
 7     7 le6j  Female    31 Unemployed    140       48.8     5        41.9 Plac…
 8     8 r3gC  Female    34 Employed      140       49.1     2        43.6 Plac…
 9     9 3Tyt  Male      31 Employed      171       60.1     1        54.7 Drug…
10    10 cmKF  Male      28 Employed      163       93.1     1        86.2 Plac…
# ℹ 140 more rows
# ℹ 6 more variables: PEFR_Pre <dbl>, PEFR_Post <dbl>, SxWheeze_Pre <fct>,
#   SxWheeze_Post <fct>, PS_Pre <dbl>, PS_Post <dbl>

Simple Data Wrangling

Select Variable/Column

We can select variable/column using select function

We can use : to select range of variable

asthma_ds1 <- select(asthma_ds, idR:Weight_Post)

asthma_ds1

# A tibble: 150 × 8
   idR   Gender   Age WorkStatus Height Weight_Pre PA_HW Weight_Post
   <chr> <fct>  <dbl> <fct>       <dbl>      <dbl> <dbl>       <dbl>
 1 nXSw  Female    34 Unemployed    179       84.2     5        76.7
 2 yg2t  Male      31 Unemployed    169       81.8     1        75.7
 3 QBW4  Male      25 Employed      164       88.5     1        84.1
 4 2x2S  Female    33 Unemployed    136       53.2     4        46.9
 5 mOnn  Male      28 Unemployed    172       71.3     2        63.3
 6 D3sl  Male      33 Unemployed    178       87.3     0        82.6
 7 le6j  Female    31 Unemployed    140       48.8     5        41.9
 8 r3gC  Female    34 Employed      140       49.1     2        43.6
 9 3Tyt  Male      31 Employed      171       60.1     1        54.7
10 cmKF  Male      28 Employed      163       93.1     1        86.2
# ℹ 140 more rows

Arithmetic Transformation

We can perform arithmetic transformation using mutate function

For example, we can calculate BMI using Weight_Pre and Height variable

asthma_ds2 <- asthma_ds1
asthma_ds2$Ht_m <- asthma_ds2$Height/100
asthma_ds2$BMI_Pre <- asthma_ds2$Weight_Pre/(asthma_ds2$Ht_m^2)

asthma_ds2

# A tibble: 150 × 10
   idR   Gender   Age WorkStatus Height Weight_Pre PA_HW Weight_Post  Ht_m
   <chr> <fct>  <dbl> <fct>       <dbl>      <dbl> <dbl>       <dbl> <dbl>
 1 nXSw  Female    34 Unemployed    179       84.2     5        76.7  1.79
 2 yg2t  Male      31 Unemployed    169       81.8     1        75.7  1.69
 3 QBW4  Male      25 Employed      164       88.5     1        84.1  1.64
 4 2x2S  Female    33 Unemployed    136       53.2     4        46.9  1.36
 5 mOnn  Male      28 Unemployed    172       71.3     2        63.3  1.72
 6 D3sl  Male      33 Unemployed    178       87.3     0        82.6  1.78
 7 le6j  Female    31 Unemployed    140       48.8     5        41.9  1.4 
 8 r3gC  Female    34 Employed      140       49.1     2        43.6  1.4 
 9 3Tyt  Male      31 Employed      171       60.1     1        54.7  1.71
10 cmKF  Male      28 Employed      163       93.1     1        86.2  1.63
# ℹ 140 more rows
# ℹ 1 more variable: BMI_Pre <dbl>
…
Obese
>= 25.00

Binning Continuous Variable

For example, we can bin BMI_Pre variable into 4 categories

asthma_ds3 <- asthma_ds2
asthma_ds3$BMI_PreCat <- cut(asthma_ds3$BMI_Pre,
                             breaks = c(0, 18.49, 22.99, 24.99, 100),
                             labels = c("Underweight", "Normal", "Overweight", "Obese"))
  
asthma_ds3

# A tibble: 150 × 11
   idR   Gender   Age WorkStatus Height Weight_Pre PA_HW Weight_Post  Ht_m
   <chr> <fct>  <dbl> <fct>       <dbl>      <dbl> <dbl>       <dbl> <dbl>
 1 nXSw  Female    34 Unemployed    179       84.2     5        76.7  1.79
 2 yg2t  Male      31 Unemployed    169       81.8     1        75.7  1.69
 3 QBW4  Male      25 Employed      164       88.5     1        84.1  1.64
 4 2x2S  Female    33 Unemployed    136       53.2     4        46.9  1.36
 5 mOnn  Male      28 Unemployed    172       71.3     2        63.3  1.72
 6 D3sl  Male      33 Unemployed    178       87.3     0        82.6  1.78
 7 le6j  Female    31 Unemployed    140       48.8     5        41.9  1.4 
 8 r3gC  Female    34 Employed      140       49.1     2        43.6  1.4 
 9 3Tyt  Male      31 Employed      171       60.1     1        54.7  1.71
10 cmKF  Male      28 Employed      163       93.1     1        86.2  1.63
# ℹ 140 more rows
# ℹ 2 more variables: BMI_Pre <dbl>, BMI_PreCat <fct>
…
These two were commonly used in Tidyverse

mutate function

mutate function is used to

create new variable

modify existing variable

asthma_ds4 <- asthma_ds1
asthma_ds4 <- mutate(asthma_ds4, Ht_m = Height/100)
asthma_ds4

# A tibble: 150 × 9
   idR   Gender   Age WorkStatus Height Weight_Pre PA_HW Weight_Post  Ht_m
   <chr> <fct>  <dbl> <fct>       <dbl>      <dbl> <dbl>       <dbl> <dbl>
 1 nXSw  Female    34 Unemployed    179       84.2     5        76.7  1.79
 2 yg2t  Male      31 Unemployed    169       81.8     1        75.7  1.69
 3 QBW4  Male      25 Employed      164       88.5     1        84.1  1.64
 4 2x2S  Female    33 Unemployed    136       53.2     4        46.9  1.36
 5 mOnn  Male      28 Unemployed    172       71.3     2        63.3  1.72
 6 D3sl  Male      33 Unemployed    178       87.3     0        82.6  1.78
 7 le6j  Female    31 Unemployed    140       48.8     5        41.9  1.4 
 8 r3gC  Female    34 Employed      140       49.1     2        43.6  1.4 
 9 3Tyt  Male      31 Employed      171       60.1     1        54.7  1.71
10 cmKF  Male      28 Employed      163       93.1     1        86.2  1.63
# ℹ 140 more rows
…
Example of Data Wrangling without Pipe Operator

asthma_ds0 <- read_sav("asthma_ds.sav")
asthma_ds1 <- as_factor(asthma_ds0)
asthma_ds2 <- select(asthma_ds1, idR:Weight_Post)
asthma_ds3 <- asthma_ds2
asthma_ds3$Ht_m <- asthma_ds3$Height/100
asthma_ds3$BMI_Pre <- asthma_ds3$Weight_Pre/(asthma_ds3$Ht_m^2)
asthma_ds3$BMI_PreCat <- cut(asthma_ds3$BMI_Pre,
                             breaks = c(0, 18.49, 22.99, 24.99, 100),
                             labels = c("Underweight", "Normal", "Overweight", "Obese"))
asthma_ds3

# A tibble: 150 × 11
   idR   Gender   Age WorkStatus Height Weight_Pre PA_HW Weight_Post  Ht_m
   <chr> <fct>  <dbl> <fct>       <dbl>      <dbl> <dbl>       <dbl> <dbl>
 1 nXSw  Female    34 Unemployed    179       84.2     5        76.7  1.79
 2 yg2t  Male      31 Unemployed    169       81.8     1        75.7  1.69
 3 QBW4  Male      25 Employed      164       88.5     1        84.1  1.64
 4 2x2S  Female    33 Unemployed    136       53.2     4        46.9  1.36
 5 mOnn  Male      28 Unemployed    172       71.3     2        63.3  1.72
 6 D3sl  Male      33 Unemployed    178       87.3     0        82.6  1.78
 7 le6j  Female    31 Unemployed    140       48.8     5        41.9  1.4 
 8 r3gC  Female    34 Employed      140       49.1     2        43.6  1.4 
 9 3Tyt  Male      31 Employed      171       60.1     1        54.7  1.71
10 cmKF  Male      28 Employed      163       93.1     1        86.2  1.63
# ℹ 140 more rows
# ℹ 2 more variables: BMI_Pre <dbl>, BMI_PreCat <fct>

Example of Data Wrangling with Pipe Operator

asthma_ds5 <- read_sav("asthma_ds.sav") %>%
  as_factor() %>%
  select(idR:Weight_Post) %>%
  mutate(Ht_m = Height/100,
         BMI_Pre = Weight_Pre/(Ht_m^2),
         BMI_PreCat = cut(BMI_Pre, breaks = c(0, 18.49, 22.99, 24.99, 100),
                          labels = c("Underweight", "Normal", "Overweight", "Obese")))

asthma_ds5

# A tibble: 150 × 11
   idR   Gender   Age WorkStatus Height Weight_Pre PA_HW Weight_Post  Ht_m
   <chr> <fct>  <dbl> <fct>       <dbl>      <dbl> <dbl>       <dbl> <dbl>
 1 nXSw  Female    34 Unemployed    179       84.2     5        76.7  1.79
 2 yg2t  Male      31 Unemployed    169       81.8     1        75.7  1.69
 3 QBW4  Male      25 Employed      164       88.5     1        84.1  1.64
 4 2x2S  Female    33 Unemployed    136       53.2     4        46.9  1.36
 5 mOnn  Male      28 Unemployed    172       71.3     2        63.3  1.72
 6 D3sl  Male      33 Unemployed    178       87.3     0        82.6  1.78
 7 le6j  Female    31 Unemployed    140       48.8     5        41.9  1.4 
 8 r3gC  Female    34 Employed      140       49.1     2        43.6  1.4 
 9 3Tyt  Male      31 Employed      171       60.1     1        54.7  1.71
10 cmKF  Male      28 Employed      163       93.1     1        86.2  1.63
# ℹ 140 more rows
# ℹ 2 more variables: BMI_Pre <dbl>, BMI_PreCat <fct>
…
