Statistical Tests in R: Descriptive Analysis
…
We can use %>% pipe operator to use as_factor function

Don’t forget to load the tidyverse package first

library(tidyverse)
library(haven)
asthmads_clean <- read_sav("asthmads_clean.sav") %>% 
  as_factor()

Import Dataset

asthmads_clean

# A tibble: 150 × 24
       X    id idR   Gender   Age WorkStatus Height  Ht_m Weight_Pre BMI_Pre
   <dbl> <dbl> <chr> <fct>  <dbl> <fct>       <dbl> <dbl>      <dbl>   <dbl>
 1     1     1 nXSw  Female    34 Unemployed    179  1.79       84.2    26.3
 2     2     2 yg2t  Male      31 Unemployed    169  1.69       81.8    28.6
 3     3     3 QBW4  Male      25 Employed      164  1.64       88.5    32.9
 4     4     4 2x2S  Female    33 Unemployed    136  1.36       53.2    28.8
 5     5     5 mOnn  Male      28 Unemployed    172  1.72       71.3    24.1
 6     6     6 D3sl  Male      33 Unemployed    178  1.78       87.3    27.6
 7     7     7 le6j  Female    31 Unemployed    140  1.4        48.8    24.9
 8     8     8 r3gC  Female    34 Employed      140  1.4        49.1    25.0
 9     9     9 3Tyt  Male      31 Employed      171  1.71       60.1    20.6
10    10    10 cmKF  Male      28 Employed      163  1.63       93.1    35.0
# ℹ 140 more rows
# ℹ 14 more variables: BMI_PreCat <fct>, PA_HW <dbl>, Weight_Post <dbl>,
#   BMI_Post <dbl>, BMI_PostCat <fct>, Tx1 <fct>, Tx2 <fct>, PEFR_Pre <dbl>,
#   PEFR_Post <dbl>, PEFR_Diff <dbl>, SxWheeze_Pre <fct>, SxWheeze_Post <fct>,
#   PS_Pre <dbl>, PS_Post <dbl>
…
