Statistical Tests in R: Univariable (Categorical)
…
However, the data need to be reshaped first.

We will learn about reshaping data in the next session.

Demo: Paired t-test with gtsummary

Demonstration only

This is the original dataset

asthmads_clean %>% 
  select(id, Weight_Post, Weight_Pre) 

# A tibble: 150 × 3
      id Weight_Post Weight_Pre
   <dbl>       <dbl>      <dbl>
 1     1        76.7       84.2
 2     2        75.7       81.8
 3     3        84.1       88.5
 4     4        46.9       53.2
 5     5        63.3       71.3
 6     6        82.6       87.3
 7     7        41.9       48.8
 8     8        43.6       49.1
 9     9        54.7       60.1
10    10        86.2       93.1
# ℹ 140 more rows
Demo: Paired t-test with gtsummary

Demonstration only

Reshape to long format

asthmads_clean %>% 
  select(id, Weight_Post, Weight_Pre) %>% 
  pivot_longer(cols = starts_with("Weight"), 
               names_to = "Type", 
               values_to = "Weight", 
               names_pattern = "Weight_(.*)") %>% 
  mutate(Type = fct_relevel(Type, "Pre"))

# A tibble: 300 × 3
      id Type  Weight
   <dbl> <fct>  <dbl>
 1     1 Post    76.7
 2     1 Pre     84.2
 3     2 Post    75.7
 4     2 Pre     81.8
 5     3 Post    84.1
 6     3 Pre     88.5
 7     4 Post    46.9
 8     4 Pre     53.2
 9     5 Post    63.3
10     5 Pre     71.3
# ℹ 290 more rows
…
